<svg width="17" height="16" viewBox="0 0 17 16" fill="none" xmlns="http://www.w3.org/2000/svg">
<path d="M12.2219 1.20181C13.0691 0.354649 14.4306 0.354649 15.2778 1.20181L15.6711 1.59514C16.5182 2.4423 16.5182 3.80381 15.6711 4.65097L9.68044 10.6416C9.43839 10.8837 9.10558 11.0954 8.74251 11.1862L5.71693 12.0636C5.47489 12.1241 5.20259 12.0636 5.02105 11.8518C4.80926 11.6703 4.74875 11.398 4.80926 11.156L5.68668 8.13038C5.77745 7.76731 5.98924 7.4345 6.23128 7.19245L12.2219 1.20181ZM14.2491 2.23051C13.9768 1.9582 13.5229 1.9582 13.2506 2.23051L12.3429 3.10792L13.765 4.52995L14.6424 3.62227C14.9147 3.34997 14.9147 2.89613 14.6424 2.62383L14.2491 2.23051ZM7.07844 8.52371L6.5641 10.3088L8.34919 9.79445C8.47021 9.76419 8.56098 9.70368 8.65174 9.61291L12.7363 5.52839L11.3445 4.13662L7.25998 8.22115C7.16921 8.31192 7.1087 8.40268 7.07844 8.52371ZM6.98768 2.38179C7.381 2.38179 7.71382 2.7146 7.71382 3.10792C7.71382 3.5315 7.381 3.83406 6.98768 3.83406H3.59903C2.90315 3.83406 2.3888 4.37867 2.3888 5.04429V13.2739C2.3888 13.9697 2.90315 14.4841 3.59903 14.4841H11.8286C12.4942 14.4841 13.0388 13.9697 13.0388 13.2739V9.88522C13.0388 9.49189 13.3414 9.15908 13.765 9.15908C14.1583 9.15908 14.4911 9.49189 14.4911 9.88522V13.2739C14.4911 14.7564 13.2809 15.9364 11.8286 15.9364H3.59903C2.1165 15.9364 0.936523 14.7564 0.936523 13.2739V5.04429C0.936523 3.59202 2.1165 2.38179 3.59903 2.38179H6.98768Z" fill="#8C9BA0"/>
</svg>
