<svg width="20" height="20" viewBox="0 0 20 20" fill="none" xmlns="http://www.w3.org/2000/svg">
<path d="M19.6875 10C19.6875 14.8438 16.1328 18.8672 11.4844 19.5703V12.8125H13.75L14.1797 10H11.4844V8.20312C11.4844 7.42188 11.875 6.67969 13.0859 6.67969H14.2969V4.29688C14.2969 4.29688 13.2031 4.10156 12.1094 4.10156C9.92188 4.10156 8.47656 5.46875 8.47656 7.89062V10H6.01562V12.8125H8.47656V19.5703C3.82812 18.8672 0.3125 14.8438 0.3125 10C0.3125 4.64844 4.64844 0.3125 10 0.3125C15.3516 0.3125 19.6875 4.64844 19.6875 10Z" fill="#0C8DD6"/>
</svg>
